Getting started with nwps • nwps
…
# Get gauges in the Washington DC area
dc_gauges <- nwps_gauges(
  bbox = c(-77.5, 38.5, -76.5, 39.5),
  srid = "EPSG_4326"
)

dc_gauges |>
  select(lid, name, state_abbreviation, status_observed_flood_category)
#> Simple feature collection with 189 features and 4 fields
#> Geometry type: POINT
#> Dimension:     XY
#> Bounding box:  xmin: -77.4763 ymin: 38.54577 xmax: -76.53142 ymax: 39.48944
#> Geodetic CRS:  WGS 84
#> # A tibble: 189 × 5
#>    lid   name                          state_abbreviation status_observed_floo…¹
#>    <chr> <chr>                         <chr>              <chr>                 
#>  1 ABPV2 Backlick Run at Armistead Bo… VA                 no_flooding           
#>  2 ACRV2 Cameron Run at Alexandria     VA                 out_of_service        
#>  3 AFRV2 Four Mile Run at Alexandria   VA                 no_flooding           
#>  4 ALEV2 Four Mile Run above Highway … VA                 no_flooding           
#>  5 ANAD2 Anacostia River at Washingto… DC                 out_of_service        
#>  6 ANAV2 Accotink Creek near Annandale VA                 no_flooding           
#>  7 APSV2 Unnamed Tributary at New Ale… VA                 no_flooding           
#>  8 ATGV2 Unnamed Tributary above New … VA                 no_flooding           
#>  9 AXTV2 Potomac River at Alexandria   VA                 no_flooding           
#> 10 BBSV2 Buckhall Branch at Signal Hi… VA                 not_defined           
#> # ℹ 179 more rows
#> # ℹ abbreviated name: ¹​status_observed_flood_category
#> # ℹ 1 more variable: geometry <POINT [°]>
…
View flood impact statements

Many gauges have stage-based impact statements describing what
happens at different water levels:

gauge$flood_impacts
#> # A tibble: 24 × 2
#>    stage statement                                                              
#>    <dbl> <chr>                                                                  
#>  1  46   Severe damage occurs in Pittsburgh with up to 15 feet of water in the …
#>  2  40   PNC Park is flooded along Federal Street.                              
#>  3  38   Water reaches the floor of Brunots Island Power Station.               
#>  4  37   Water reaches the floor level of Rivers Casino.                        
#>  5  36.6 Steam distribution lines in Pittsburgh are in jeopardy. Water reaches …
#>  6  36   Serious flood damage occurs to about 500 businesses on the North Side …
#>  7  35.8 Flood waters reach the historic levels of Hurricane Agnes on June 26, …
#>  8  35   The river level reaches a critical stage for Acrisure Stadium and PNC …
#>  9  32   Mckees Rocks is affected. Flooding occurs on Neville Island.           
#> 10  31   Water reaches the railroad tracks at Station Square on the South Side.…
#> # ℹ 14 more rows
…
The monitoring endpoint also provides information about data
processing:

# HML product processing stats
status$hml_product_counts
#> # A tibble: 102 × 2
#>    time_period count
#>    <chr>       <int>
#>  1 t-10day     47073
#>  2 t-10hour     1963
#>  3 t-11day     47112
#>  4 t-11hour     1962
#>  5 t-12day     47115
#>  6 t-12hour     1960
#>  7 t-13day     47117
#>  8 t-13hour     1959
#>  9 t-14day     47032
#> 10 t-14hour     1963
#> # ℹ 92 more rows
…
